<?xml version="1.0" encoding="utf-8"?>
<!-- Generator: Adobe Illustrator 24.1.0, SVG Export Plug-In . SVG Version: 6.00 Build 0)  -->
<svg version="1.1" id="Layer_1" xmlns="http://www.w3.org/2000/svg" xmlns:xlink="http://www.w3.org/1999/xlink" x="0px" y="0px"
	 viewBox="0 0 136 81" style="enable-background:new 0 0 136 81;" xml:space="preserve">
<style type="text/css">
	.st0{fill-rule:evenodd;clip-rule:evenodd;fill:#FFFFFF;}
</style>
<g id="A">
	<path class="st0" d="M124.6,40.8c6.6,3.6,10.9,10.7,10.9,18.6c0,9.6-6.2,18.1-15.2,20.5l-3,0.6H22.4c-12,0-21.9-10.5-21.9-23.3
		c0-13.2,10.5-23.9,23.1-23c3.6-5.5,9.6-8.7,16.1-8.7c1.1,0,2.1,0,3.2,0.2C43.8,11.6,54.7,0.5,68.2,0.5c9,0,17.4,5.3,21.9,13.9
		c3.2-1.5,6.9-2.3,10.3-2.3c13.5,0,24.4,11.7,24.4,26C124.8,38.9,124.8,39.8,124.6,40.8L124.6,40.8z M90.5,68.6V30.4l-13.7-4.1
		l-24.6,9.2v27.7l8.4-3.2V37.6l16.3-3.8v33.1l-24.9-3.6l24.9,9.2L90.5,68.6L90.5,68.6L90.5,68.6z"/>
</g>
</svg>
