<svg xmlns="http://www.w3.org/2000/svg" width="11.67" height="12.087" viewBox="0 0 11.67 12.087">
  <path id="Path_1" data-name="Path 1" d="M12.476,11.009,9.6,8.017A4.878,4.878,0,1,0,5.864,9.76a4.828,4.828,0,0,0,2.8-.883l2.9,3.015a.636.636,0,1,0,.917-.882ZM5.864,1.273A3.607,3.607,0,1,1,2.257,4.88,3.611,3.611,0,0,1,5.864,1.273Z" transform="translate(-0.984)" fill="#5cc78e"/>
</svg>
